------------------------------------------------------------------------
Passo 1: Insira os números [1, 2, 3, 4 e 5] em uma lista - com 5 células
- Inserindo os números em uma lista...
- Número 1 adicionado
- Número 2 adicionado
- Número 3 adicionado
- Número 4 adicionado
- Número 5 adicionado
- Resultado da lista: [1, 2, 3, 4, 5]
                                                                        
------------------------------------------------------------------------
Passo 2: Remova todos os dados da lista e insira-os em uma Pilha - com 5 células. Deve-se sempre remover os dados da célula inicial da lista
- Removendo os números da lista e adicionando a uma pilha...
- Número 1 removido da lista
- Resultado da lista: [2, 3, 4, 5]
- Número 1 adicionado a pilha
- ----------------------------------------------
- Número 2 removido da lista
- Resultado da lista: [3, 4, 5]
- Número 2 adicionado a pilha
- ----------------------------------------------
- Número 3 removido da lista
- Resultado da lista: [4, 5]
- Número 3 adicionado a pilha
- ----------------------------------------------
- Número 4 removido da lista
- Resultado da lista: [5]
- Número 4 adicionado a pilha
- ----------------------------------------------
- Número 5 removido da lista
- Resultado da lista: []
- Número 5 adicionado a pilha
- ----------------------------------------------
- Resultado da pilha: [5, 4, 3, 2, 1]
                                                                        
------------------------------------------------------------------------
Passo 3: Remova os dados da Pilha e insira-os em uma Fila - com 10 células
- Removendo os números da pilha e adicionando a uma fila de 10 células...
- Número 5 removido da pilha
- Resultado da pilha: [4, 3, 2, 1]
- Número 5 adicionado a fila
- ----------------------------------------------
- Número 4 removido da pilha
- Resultado da pilha: [3, 2, 1]
- Número 4 adicionado a fila
- ----------------------------------------------
- Número 3 removido da pilha
- Resultado da pilha: [2, 1]
- Número 3 adicionado a fila
- ----------------------------------------------
- Número 2 removido da pilha
- Resultado da pilha: [1]
- Número 2 adicionado a fila
- ----------------------------------------------
- Número 1 removido da pilha
- Resultado da pilha: []
- Número 1 adicionado a fila
- ----------------------------------------------
- Resultado da fila: [5, 4, 3, 2, 1]
                                                                        
------------------------------------------------------------------------
Passo 4: Insira os números [6, 7, 8, 9 e 10] na lista
- Inserindo os números em uma lista...
- Número 6 adicionado
- Número 7 adicionado
- Número 8 adicionado
- Número 9 adicionado
- Número 10 adicionado
- Resultado da lista: [6, 7, 8, 9, 10]
                                                                        
------------------------------------------------------------------------
Passo 5: Repita os passos 2 e 3.
- Removendo os números da lista e adicionando a uma pilha...
- Número 6 removido da lista
- Resultado da lista: [7, 8, 9, 10]
- Número 6 adicionado a pilha
- ----------------------------------------------
- Número 7 removido da lista
- Resultado da lista: [8, 9, 10]
- Número 7 adicionado a pilha
- ----------------------------------------------
- Número 8 removido da lista
- Resultado da lista: [9, 10]
- Número 8 adicionado a pilha
- ----------------------------------------------
- Número 9 removido da lista
- Resultado da lista: [10]
- Número 9 adicionado a pilha
- ----------------------------------------------
- Número 10 removido da lista
- Resultado da lista: []
- Número 10 adicionado a pilha
- ----------------------------------------------
- Resultado da pilha: [10, 9, 8, 7, 6]
- Removendo os números da pilha e adicionando a uma fila de 10 células...
- Número 10 removido da pilha
- Resultado da pilha: [9, 8, 7, 6]
- Número 10 adicionado a fila
- ----------------------------------------------
- Número 9 removido da pilha
- Resultado da pilha: [8, 7, 6]
- Número 9 adicionado a fila
- ----------------------------------------------
- Número 8 removido da pilha
- Resultado da pilha: [7, 6]
- Número 8 adicionado a fila
- ----------------------------------------------
- Número 7 removido da pilha
- Resultado da pilha: [6]
- Número 7 adicionado a fila
- ----------------------------------------------
- Número 6 removido da pilha
- Resultado da pilha: []
- Número 6 adicionado a fila
- ----------------------------------------------
- Resultado da fila: [5, 4, 3, 2, 1, 10, 9, 8, 7, 6]


